{
  "appId": "PortGateway.mpdc.uncommented",
  "appName": "Port Gateway",
  "bundledWebRuntime": false,
  "npmClient": "npm",
  "webDir": "www",
  "plugins": {
    "SplashScreen": {
      "launchShowDuration": 0
    }
  },
  "cordova": {}
}
